…
```
##      threshold sensitivity specificity
## 1         -Inf           1 0.000000000
## 2 0.0006650011           1 0.001183432
## 3 0.0007546129           1 0.002366864
## 4 0.0008732794           1 0.003550296
## 5 0.0010023908           1 0.004733728
```

``` r
test_no_feature_1
```

```
## # A tibble: 1,059 × 10
## # Groups:   id [81]
##    feature_2_standard feature_3_standard feature_4_standard    id date     y    
##                 <dbl>              <dbl>              <dbl> <int> <chr>    <chr>
##  1            -0.991             0.0121               0.993 50821 2000-12… acti…
##  2            -0.327            -0.938               -0.328 50821 2001-12… acti…
##  3            -0.899            -2.18                -0.658 50821 2002-12… acti…
##  4             0.940             1.33                -0.279 50821 2003-12… acti…
##  5            -1.45             -0.415                1.27  50821 2004-12… acti…
##  6            -0.519             0.534                1.17  50821 2005-12… acti…
##  7             0.186            -0.00465             -0.335 50821 2006-12… acti…
##  8            -0.0670            1.33                 1.34  50821 2007-12… acti…
##  9             1.52              0.0825              -1.48  50821 2008-12… 90+D…
## 10             0.967            -0.259                0.338 50821 2009-12… acti…
## # ℹ 1,049 more rows
## # ℹ 4 more variables: predicted_y <fct>, y_numeric <dbl>, Probability <dbl>,
## #   predicted_class <dbl>
```
…
```
##     threshold sensitivity specificity
## 1        -Inf           1 0.000000000
## 2 0.001903202           1 0.001183432
## 3 0.002142986           1 0.002366864
## 4 0.002302889           1 0.003550296
## 5 0.002353089           1 0.004733728
```

``` r
test_no_feature_3
```

```
## # A tibble: 1,059 × 10
## # Groups:   id [81]
##    feature_1_standard feature_2_standard feature_4_standard    id date     y    
##                 <dbl>              <dbl>              <dbl> <int> <chr>    <chr>
##  1             0.161             -0.991               0.993 50821 2000-12… acti…
##  2             0.121             -0.327              -0.328 50821 2001-12… acti…
##  3            -0.0959            -0.899              -0.658 50821 2002-12… acti…
##  4             0.584              0.940              -0.279 50821 2003-12… acti…
##  5             0.0399            -1.45                1.27  50821 2004-12… acti…
##  6             0.248             -0.519               1.17  50821 2005-12… acti…
##  7             0.315              0.186              -0.335 50821 2006-12… acti…
##  8             0.392             -0.0670              1.34  50821 2007-12… acti…
##  9            -3.39               1.52               -1.48  50821 2008-12… 90+D…
## 10             0.183              0.967               0.338 50821 2009-12… acti…
## # ℹ 1,049 more rows
## # ℹ 4 more variables: predicted_y <fct>, y_numeric <dbl>, Probability <dbl>,
## #   predicted_class <dbl>
```
…
